module gitlab.com/cybriqsystems/proc

go 1.18

require (
	github.com/davecgh/go-spew v1.1.1
	github.com/gookit/color v1.5.1
	go.uber.org/atomic v1.9.0
	gopkg.in/src-d/go-git.v4 v4.13.1
)

require (
	github.com/emirpasic/gods v1.12.0 // indirect
	github.com/jbenet/go-context v0.0.0-20150711004518-d14ea06fba99 // indirect
	github.com/kevinburke/ssh_config v0.0.0-20190725054713-01f96b0aa0cd // indirect
	github.com/mitchellh/go-homedir v1.1.0 // indirect
	github.com/sergi/go-diff v1.0.0 // indirect
	github.com/src-d/gcfg v1.4.0 // indirect
	github.com/xanzy/ssh-agent v0.2.1 // indirect
	github.com/xo/terminfo v0.0.0-20210125001918-ca9a967f8778 // indirect
	golang.org/x/crypto v0.0.0-20190701094942-4def268fd1a4 // indirect
	golang.org/x/net v0.0.0-20190724013045-ca1201d0de80 // indirect
	golang.org/x/sys v0.0.0-20210330210617-4fbd30eecc44 // indirect
	gopkg.in/src-d/go-billy.v4 v4.3.2 // indirect
	gopkg.in/warnings.v0 v0.1.2 // indirect
)
